…
13 9.37e-59      11.1  0.517 0.002  3.48e-54 4       AT4G27810
14 2.41e-32      10.1  0.293 0.002  8.95e-28 4       AT4G14940
15 3.22e-97      10.1  0.914 0.016  1.20e-92 4       AT1G51405
Calculating cluster 0
Calculating cluster 1
Calculating cluster 2
Calculating cluster 3
Calculating cluster 4
Calculating cluster 5
Calculating cluster 6
Calculating cluster 7
Calculating cluster 8
Calculating cluster 9
Calculating cluster 10
# A tibble: 33 × 7
# Groups:   cluster [11]
       p_val avg_log2FC pct.1 pct.2 p_val_adj cluster gene     
       <dbl>      <dbl> <dbl> <dbl>     <dbl> <fct>   <chr>    
 1 3.88e-143       2.89 0.253 0.056 1.44e-138 0       AT5G28020
 2 8.20e-234       2.60 0.637 0.321 3.04e-229 0       AT1G73600
 3 2.52e-155       2.45 0.302 0.074 9.35e-151 0       AT2G34170
 4 0               4.64 0.381 0.018 0         1       AT1G18810
 5 0               4.38 0.316 0.01  0         1       AT5G10250
 6 0               4.22 0.653 0.078 0         1       AT4G04840
 7 0               6.21 0.254 0.004 0         2       AT4G37750
 8 0               5.73 0.289 0.009 0         2       AT3G53190
 9 0               5.73 0.45  0.012 0         2       AT3G05600
10 0               5.54 0.363 0.018 0         3       AT1G29920
# ℹ 23 more rows
…
